// Jest Snapshot v1, https://goo.gl/fbAQLP

exports[`Article List Component should render correctly 1`] = `
<ul>
  <li>
    <article>
      <header>
        <h3 />
      </header>
      <time>
        Invalid Date
      </time>
      <p>
        <a>
           
        </a>
      </p>
      <section>
        <p />
      </section>
    </article>
  </li>
  <li>
    <article>
      <header>
        <h3 />
      </header>
      <time>
        Invalid Date
      </time>
      <p>
        <a>
           
        </a>
      </p>
      <section>
        <p />
      </section>
    </article>
  </li>
</ul>
`;
